\relax 
\providecommand{\transparent@use}[1]{}
\@writefile{toc}{\contentsline {section}{\numberline {1}Describe the problem}{1}}
\@writefile{toc}{\contentsline {subsection}{\numberline {1.1}Bachelor program}{1}}
\@writefile{lot}{\contentsline {table}{\numberline {1}{\ignorespaces List semesters in 5 years studying \relax }}{1}}
\@writefile{toc}{\contentsline {subsection}{\numberline {1.2}Parameters of the problem}{1}}
\@writefile{toc}{\contentsline {subsubsection}{\numberline {1.2.1}Specialization Program and student group}{1}}
\@writefile{toc}{\contentsline {subsubsection}{\numberline {1.2.2}Courses}{1}}
\@writefile{toc}{\contentsline {subsubsection}{\numberline {1.2.3}Professors}{2}}
\@writefile{toc}{\contentsline {subsection}{\numberline {1.3}Variable and domain}{2}}
\@writefile{toc}{\contentsline {subsection}{\numberline {1.4}Constraints}{2}}
\@writefile{toc}{\contentsline {subsubsection}{\numberline {1.4.1}No conflict in the schedule of a course }{2}}
\@writefile{toc}{\contentsline {subsubsection}{\numberline {1.4.2}No conflict for professors}{2}}
\@writefile{toc}{\contentsline {subsubsection}{\numberline {1.4.3}No course in strictly unavailable time}{2}}
\@writefile{toc}{\contentsline {subsubsection}{\numberline {1.4.4}Fixed slots for Courses}{2}}
\@writefile{toc}{\contentsline {subsubsection}{\numberline {1.4.5}Continuous Slot}{2}}
\@writefile{toc}{\contentsline {subsection}{\numberline {1.5}Parameters}{2}}
\@writefile{toc}{\contentsline {subsubsection}{\numberline {1.5.1}Distribution of exercise}{2}}
\@writefile{toc}{\contentsline {subsubsection}{\numberline {1.5.2}Limitation of number courses occurring at the same time}{2}}
\@writefile{toc}{\contentsline {subsection}{\numberline {1.6}Objective}{3}}
\@writefile{toc}{\contentsline {subsubsection}{\numberline {1.6.1}Minimizing the total student conflicts}{3}}
\@writefile{toc}{\contentsline {subsubsection}{\numberline {1.6.2}Minimizing slots in down time of professors }{3}}
\@writefile{toc}{\contentsline {subsubsection}{\numberline {1.6.3}Minimizing the course in the slot of last day}{3}}
\@writefile{toc}{\contentsline {subsubsection}{\numberline {1.6.4}Maximizing the course in the middle of day}{3}}
