\relax 
\providecommand\hyper@newdestlabel[2]{}
\providecommand\HyperFirstAtBeginDocument{\AtBeginDocument}
\HyperFirstAtBeginDocument{\ifx\hyper@anchor\@undefined
\global\let\oldcontentsline\contentsline
\gdef\contentsline#1#2#3#4{\oldcontentsline{#1}{#2}{#3}}
\global\let\oldnewlabel\newlabel
\gdef\newlabel#1#2{\newlabelxx{#1}#2}
\gdef\newlabelxx#1#2#3#4#5#6{\oldnewlabel{#1}{{#2}{#3}}}
\AtEndDocument{\ifx\hyper@anchor\@undefined
\let\contentsline\oldcontentsline
\let\newlabel\oldnewlabel
\fi}
\fi}
\global\let\hyper@last\relax 
\gdef\HyperFirstAtBeginDocument#1{#1}
\providecommand\HyField@AuxAddToFields[1]{}
\providecommand\HyField@AuxAddToCoFields[2]{}
\select@language{english}
\@writefile{toc}{\select@language{english}}
\@writefile{lof}{\select@language{english}}
\@writefile{lot}{\select@language{english}}
\@writefile{toc}{\contentsline {chapter}{Abstract}{1}{chapter*.1}}
\citation{timetable}
\citation{patat}
\citation{mip}
\citation{classifies_tts}
\citation{Cambazard2012}
\citation{section_group}
\citation{cp_patat}
\citation{gapTheoryPractice}
\@writefile{toc}{\contentsline {chapter}{Introduction}{7}{chapter*.5}}
\@writefile{toc}{\contentsline {subsubsection}{Problem}{7}{section*.6}}
\citation{OscaR}
\@writefile{toc}{\contentsline {subsubsection}{Motivation}{8}{section*.7}}
\@writefile{toc}{\contentsline {subsubsection}{Approach}{8}{section*.8}}
\@writefile{toc}{\contentsline {subsubsection}{Contribution}{8}{section*.9}}
\@writefile{toc}{\contentsline {subsubsection}{The structure of the thesis}{8}{section*.10}}
\citation{timetable}
\citation{classifies_tts}
\@writefile{toc}{\contentsline {chapter}{\numberline {1}Course Timetable Problem}{9}{chapter.1}}
\@writefile{lof}{\addvspace {10\p@ }}
\@writefile{lot}{\addvspace {10\p@ }}
\@writefile{toc}{\contentsline {section}{\numberline {1.1}University timetabling}{9}{section.1.1}}
\citation{stateOfArt_tts}
\citation{stateOfArt_tts}
\@writefile{toc}{\contentsline {section}{\numberline {1.2}Introduction Course Timetabling}{10}{section.1.2}}
\@writefile{toc}{\contentsline {subsection}{\numberline {1.2.1}Common requirements}{10}{subsection.1.2.1}}
\@writefile{toc}{\contentsline {subsection}{\numberline {1.2.2}Different goals of stakeholders}{10}{subsection.1.2.2}}
\citation{section_group}
\citation{graphColoring}
\@writefile{toc}{\contentsline {subsection}{\numberline {1.2.3}Course structure}{11}{subsection.1.2.3}}
\@writefile{toc}{\contentsline {subsection}{\numberline {1.2.4}State of art}{11}{subsection.1.2.4}}
\citation{CP_defintion}
\citation{CP_course}
\citation{CP_course}
\@writefile{toc}{\contentsline {chapter}{\numberline {2}Constraint Programming}{13}{chapter.2}}
\@writefile{lof}{\addvspace {10\p@ }}
\@writefile{lot}{\addvspace {10\p@ }}
\@writefile{toc}{\contentsline {section}{\numberline {2.1}Constraint Programming}{13}{section.2.1}}
\@writefile{toc}{\contentsline {subsection}{\numberline {2.1.1}Constraint Definition}{13}{subsection.2.1.1}}
\newlabel{exp_constraint}{{2.1}{13}{}{exmp.2.1}{}}
\@writefile{toc}{\contentsline {subsection}{\numberline {2.1.2}Constraint Satisfaction Problem}{13}{subsection.2.1.2}}
\citation{CP_course}
\citation{CP_course}
\@writefile{toc}{\contentsline {subsection}{\numberline {2.1.3}Progagation }{14}{subsection.2.1.3}}
\@writefile{toc}{\contentsline {subsubsection}{Level of Consistency}{14}{section*.11}}
\citation{CP_course}
\@writefile{toc}{\contentsline {subsubsection}{Propagation}{15}{section*.12}}
\newlabel{exp_propagation}{{2.2}{15}{}{exmp.2.2}{}}
\@writefile{lof}{\contentsline {figure}{\numberline {2.1}{\ignorespaces Propagation process example\relax }}{15}{figure.2.1}}
\providecommand*\caption@xref[2]{\@setref\relax\@undefined{#1}}
\newlabel{fig:propagation}{{2.1}{15}{Propagation process example\relax }{figure.2.1}{}}
\@writefile{toc}{\contentsline {subsection}{\numberline {2.1.4}Search}{15}{subsection.2.1.4}}
\@writefile{toc}{\contentsline {subsubsection}{Branching strategy}{15}{section*.13}}
\citation{CP_course}
\citation{CP_course}
\@writefile{lof}{\contentsline {figure}{\numberline {2.2}{\ignorespaces Example of tree search of binary labeling strategy\relax }}{16}{figure.2.2}}
\@writefile{toc}{\contentsline {subsection}{\numberline {2.1.5}Constraint Optimization Problem}{16}{subsection.2.1.5}}
\citation{globalConstraint}
\@writefile{toc}{\contentsline {section}{\numberline {2.2}Global Constraint}{17}{section.2.2}}
\@writefile{toc}{\contentsline {subsection}{\numberline {2.2.1}AllDifferent}{17}{subsection.2.2.1}}
\newlabel{allDifferent_exp}{{2.3}{17}{}{exmp.2.3}{}}
\@writefile{lof}{\contentsline {figure}{\numberline {2.3}{\ignorespaces Decomposition of \textit  {AllDifferent} into set of binary constraints  does not detect invalid values of variable \textit  {z}\relax }}{18}{figure.2.3}}
\@writefile{toc}{\contentsline {subsection}{\numberline {2.2.2}Global Cardinality Constraint (GCC)}{18}{subsection.2.2.2}}
\savepointas{a}{pgfid25}{0pt}{0pt}
\savepicturepage{pgfid25}{18}
\pgfsyspdfmark {pgfid25}{17631081}{16368904}
\savepointas{b}{pgfid26}{0pt}{0pt}
\savepicturepage{pgfid26}{18}
\pgfsyspdfmark {pgfid26}{17631081}{14586326}
\savepicturepage{pgfid27}{18}
\pgfsyspdfmark {pgfid27}{27012557}{15922111}
\@writefile{lot}{\contentsline {table}{\numberline {2.1}{\ignorespaces Possible assignment of GCC constraint.\relax }}{18}{table.2.1}}
\@writefile{toc}{\contentsline {subsection}{\numberline {2.2.3}Bin-Packing Constraint}{18}{subsection.2.2.3}}
\citation{binPacking}
\citation{cp_table}
\citation{CP_course}
\@writefile{lof}{\contentsline {figure}{\numberline {2.4}{\ignorespaces Bin Packing\relax }}{19}{figure.2.4}}
\@writefile{toc}{\contentsline {subsection}{\numberline {2.2.4}Table constraint}{19}{subsection.2.2.4}}
\citation{bachelor}
\@writefile{toc}{\contentsline {chapter}{\numberline {3}Model}{20}{chapter.3}}
\@writefile{lof}{\addvspace {10\p@ }}
\@writefile{lot}{\addvspace {10\p@ }}
\@writefile{toc}{\contentsline {section}{\numberline {3.1}Problem description}{20}{section.3.1}}
\@writefile{toc}{\contentsline {subsection}{\numberline {3.1.1}The semester}{20}{subsection.3.1.1}}
\@writefile{lof}{\contentsline {figure}{\numberline {3.1}{\ignorespaces Entity Relationship of course timetabling problem\relax }}{21}{figure.3.1}}
\newlabel{er_diagram}{{3.1}{21}{Entity Relationship of course timetabling problem\relax }{figure.3.1}{}}
\@writefile{lot}{\contentsline {table}{\numberline {3.1}{\ignorespaces List semesters in 3 years of bachelor program \relax }}{21}{table.3.1}}
\newlabel{tab:semesterEPL}{{3.1}{21}{List semesters in 3 years of bachelor program \relax }{table.3.1}{}}
\@writefile{toc}{\contentsline {subsection}{\numberline {3.1.2}The group students and program}{21}{subsection.3.1.2}}
\newlabel{exp:program}{{3.2}{22}{}{exmp.3.2}{}}
\@writefile{toc}{\contentsline {subsection}{\numberline {3.1.3}The course}{22}{subsection.3.1.3}}
\newlabel{exerciseType}{{3.4}{22}{}{defn.3.4}{}}
\newlabel{exmp_course}{{3.3}{23}{}{exmp.3.3}{}}
\@writefile{lot}{\contentsline {table}{\numberline {3.2}{\ignorespaces Example of data of a course\relax }}{23}{table.3.2}}
\@writefile{toc}{\contentsline {subsection}{\numberline {3.1.4}Subgroups}{23}{subsection.3.1.4}}
\@writefile{lot}{\contentsline {table}{\numberline {3.3}{\ignorespaces Example of arranging subgroups into exercise sessions\relax }}{24}{table.3.3}}
\@writefile{toc}{\contentsline {subsection}{\numberline {3.1.5}Professors}{24}{subsection.3.1.5}}
\@writefile{toc}{\contentsline {subsection}{\numberline {3.1.6}The slots}{24}{subsection.3.1.6}}
\@writefile{toc}{\contentsline {subsection}{\numberline {3.1.7}The problem parameters}{25}{subsection.3.1.7}}
\newlabel{equ:Margin}{{3.2}{25}{}{equation.3.1.2}{}}
\@writefile{lot}{\contentsline {table}{\numberline {3.4}{\ignorespaces Quality of slots\relax }}{25}{table.3.4}}
\@writefile{lot}{\contentsline {table}{\numberline {3.5}{\ignorespaces Continuous Slots\relax }}{26}{table.3.5}}
\newlabel{tab:continuousSlots}{{3.5}{26}{Continuous Slots\relax }{table.3.5}{}}
\@writefile{toc}{\contentsline {section}{\numberline {3.2}Variables and Domain}{26}{section.3.2}}
\@writefile{toc}{\contentsline {section}{\numberline {3.3}Constraints}{27}{section.3.3}}
\@writefile{toc}{\contentsline {subsection}{\numberline {3.3.1}Constraint 1: No conflict in sessions of each course}{27}{subsection.3.3.1}}
\newlabel{cons1}{{3.3.1}{27}{Constraint 1: No conflict in sessions of each course}{subsection.3.3.1}{}}
\@writefile{toc}{\contentsline {subsection}{\numberline {3.3.2}Constraint 2: No conflict in the schedule of professors}{27}{subsection.3.3.2}}
\@writefile{toc}{\contentsline {subsection}{\numberline {3.3.3}Constraint 3: No teaching session in unavailable slots of professors}{27}{subsection.3.3.3}}
\@writefile{toc}{\contentsline {subsection}{\numberline {3.3.4}Constraint 4: Maximum capacity for each slot}{27}{subsection.3.3.4}}
\citation{softConstraint}
\@writefile{toc}{\contentsline {subsection}{\numberline {3.3.5}Constraint 5: Assignment sessions}{28}{subsection.3.3.5}}
\@writefile{toc}{\contentsline {subsection}{\numberline {3.3.6}Constraint 6: Breaking symmetry between sessions}{28}{subsection.3.3.6}}
\@writefile{toc}{\contentsline {subsection}{\numberline {3.3.7}Constraint 7: Courses having continuous sessions}{28}{subsection.3.3.7}}
\@writefile{toc}{\contentsline {subsection}{\numberline {3.3.8}Constraint 8: No conflict in student schedule}{28}{subsection.3.3.8}}
\citation{mip}
\@writefile{toc}{\contentsline {subsection}{\numberline {3.3.9}Constraint 9: Balance between exercise sessions}{29}{subsection.3.3.9}}
\@writefile{toc}{\contentsline {section}{\numberline {3.4}Optimization}{29}{section.3.4}}
\@writefile{toc}{\contentsline {subsection}{\numberline {3.4.1}Objective 1: Minimizing the total conflicts in student schedule}{29}{subsection.3.4.1}}
\newlabel{equ:totalConflict}{{3.16}{29}{Objective 1: Minimizing the total conflicts in student schedule}{equation.3.4.16}{}}
\@writefile{toc}{\contentsline {subsection}{\numberline {3.4.2}Objective 2: Minimizing the total conflicts in non preferred slots of professor schedule}{30}{subsection.3.4.2}}
\@writefile{toc}{\contentsline {subsubsection}{Sub-Objective 2.1 - Minimizing the total conflicts in non preferred slots of all professors}{30}{section*.14}}
\@writefile{toc}{\contentsline {subsubsection}{Sub-Objective 2.2 - Minimizing the maximum number of conflicts of a professor}{30}{section*.15}}
\@writefile{toc}{\contentsline {subsection}{\numberline {3.4.3}Objective 3: Maximizing the quality of schedule}{30}{subsection.3.4.3}}
\newlabel{equ:valueLecture}{{3.20}{31}{Objective 3: Maximizing the quality of schedule}{equation.3.4.20}{}}
\newlabel{equ:valueExercise}{{3.21}{31}{Objective 3: Maximizing the quality of schedule}{equation.3.4.21}{}}
\newlabel{equ:objective3}{{3.22}{31}{Objective 3: Maximizing the quality of schedule}{equation.3.4.22}{}}
\@writefile{toc}{\contentsline {subsection}{\numberline {3.4.4}Objective 4: Minimizing the total number of students attending the end slot of day}{31}{subsection.3.4.4}}
\@writefile{lot}{\contentsline {table}{\numberline {3.6}{\ignorespaces The end slots of day\relax }}{32}{table.3.6}}
\newlabel{tab:endSlots}{{3.6}{32}{The end slots of day\relax }{table.3.6}{}}
\newlabel{equ:endSlots}{{3.25}{32}{Objective 4: Minimizing the total number of students attending the end slot of day}{equation.3.4.25}{}}
\@writefile{toc}{\contentsline {subsection}{\numberline {3.4.5}Objective 5: Minimizing the total deviation of number of students exercise sessions}{32}{subsection.3.4.5}}
\newlabel{equ:objective5}{{3.26}{32}{Objective 5: Minimizing the total deviation of number of students exercise sessions}{equation.3.4.26}{}}
\newlabel{equ:ratioDeviation}{{3.27}{32}{Objective 5: Minimizing the total deviation of number of students exercise sessions}{equation.3.4.27}{}}
\@writefile{lof}{\contentsline {figure}{\numberline {3.2}{\ignorespaces The deviation of number of students in exercise sessions of one course\relax }}{33}{figure.3.2}}
\newlabel{distribution_st}{{3.2}{33}{The deviation of number of students in exercise sessions of one course\relax }{figure.3.2}{}}
\@writefile{toc}{\contentsline {chapter}{\numberline {4}The Solver}{34}{chapter.4}}
\@writefile{lof}{\addvspace {10\p@ }}
\@writefile{lot}{\addvspace {10\p@ }}
\@writefile{toc}{\contentsline {section}{\numberline {4.1}The variables}{34}{section.4.1}}
\@writefile{lol}{\contentsline {lstlisting}{listings/1\textunderscore var.scala}{34}{lstlisting.4.-1}}
\@writefile{toc}{\contentsline {section}{\numberline {4.2}Constraints}{35}{section.4.2}}
\@writefile{toc}{\contentsline {subsection}{\numberline {4.2.1}Constraint 1: No conflict in sessions of each course}{35}{subsection.4.2.1}}
\@writefile{lol}{\contentsline {lstlisting}{listings/Cons1\textunderscore courseConflict.scala}{35}{lstlisting.4.-2}}
\@writefile{toc}{\contentsline {subsection}{\numberline {4.2.2}Constraint 2: No conflict in the schedule of professors}{35}{subsection.4.2.2}}
\@writefile{lol}{\contentsline {lstlisting}{listings/Cons2\textunderscore professorSchedule.scala}{35}{lstlisting.4.-3}}
\@writefile{toc}{\contentsline {subsection}{\numberline {4.2.3}Constraint 3: No teaching session in unavailable slots of professors}{35}{subsection.4.2.3}}
\@writefile{lol}{\contentsline {lstlisting}{listings/Cons3\textunderscore professorUnvailableSlot.scala}{35}{lstlisting.4.-4}}
\@writefile{toc}{\contentsline {subsection}{\numberline {4.2.4}Constraint 4: Maximum capacity for each slot}{36}{subsection.4.2.4}}
\@writefile{lol}{\contentsline {lstlisting}{listings/Cons4\textunderscore maxActivities.scala}{36}{lstlisting.4.-5}}
\@writefile{toc}{\contentsline {subsection}{\numberline {4.2.5}Constraint 5: Assignment sessions}{36}{subsection.4.2.5}}
\@writefile{lol}{\contentsline {lstlisting}{listings/Cons5\textunderscore fixedAssignment.scala}{36}{lstlisting.4.-6}}
\@writefile{toc}{\contentsline {subsection}{\numberline {4.2.6}Constraint 6: Breaking symmetry between sessions}{36}{subsection.4.2.6}}
\@writefile{lol}{\contentsline {lstlisting}{listings/Cons1a\textunderscore breakingSymmetry.scala}{36}{lstlisting.4.-7}}
\@writefile{toc}{\contentsline {subsection}{\numberline {4.2.7}Constraint 7: Courses having continuous sessions}{37}{subsection.4.2.7}}
\@writefile{lol}{\contentsline {lstlisting}{listings/Cons6\textunderscore continuousCourses.scala}{37}{lstlisting.4.-8}}
\@writefile{toc}{\contentsline {subsection}{\numberline {4.2.8}Constraint 8: No conflict in student schedule}{37}{subsection.4.2.8}}
\newlabel{cons8_conflict}{{4.2.8}{37}{Constraint 8: No conflict in student schedule}{subsection.4.2.8}{}}
\@writefile{lol}{\contentsline {lstlisting}{listings/Cons7\textunderscore studentSchedule.scala}{37}{lstlisting.4.-9}}
\@writefile{toc}{\contentsline {subsection}{\numberline {4.2.9}Constraint 9: Balance between exercise sessions}{37}{subsection.4.2.9}}
\newlabel{cons9_balance}{{4.2.9}{37}{Constraint 9: Balance between exercise sessions}{subsection.4.2.9}{}}
\@writefile{lol}{\contentsline {lstlisting}{listings/Cons8\textunderscore balanceExerciseSessions.scala}{38}{lstlisting.4.-10}}
\@writefile{toc}{\contentsline {subsection}{\numberline {4.2.10}Constraint 10: Additional constraint}{38}{subsection.4.2.10}}
\@writefile{lot}{\contentsline {table}{\numberline {4.1}{\ignorespaces Example of the availability of groups. The variables of exercise sessions   need to remove the slots at which do not have enough attending students\relax }}{38}{table.4.1}}
\newlabel{tab:cons10_groupAvailable}{{4.1}{38}{Example of the availability of groups. The variables of exercise sessions \\ need to remove the slots at which do not have enough attending students\relax }{table.4.1}{}}
\@writefile{toc}{\contentsline {section}{\numberline {4.3}Division student groups}{39}{section.4.3}}
\newlabel{sec:subgroup}{{4.3}{39}{Division student groups}{section.4.3}{}}
\@writefile{toc}{\contentsline {subsection}{\numberline {4.3.1}Organizing students in subgroups reduces the execution time of finding the solution}{39}{subsection.4.3.1}}
\newlabel{exp:exercise_subgroup}{{4.2}{39}{}{exmp.4.2}{}}
\@writefile{lot}{\contentsline {table}{\numberline {4.2}{\ignorespaces Choosing the schedule for subgroup A taking three courses X,Y,Z\relax }}{39}{table.4.2}}
\newlabel{tab:choose_groupSchedule}{{4.2}{39}{Choosing the schedule for subgroup A taking three courses X,Y,Z\relax }{table.4.2}{}}
\citation{section_group}
\@writefile{toc}{\contentsline {subsection}{\numberline {4.3.2}Organizing students in larger units leads to an imbalance of the number of students between exercise sessions}{40}{subsection.4.3.2}}
\@writefile{lof}{\contentsline {figure}{\numberline {4.1}{\ignorespaces The deviation of two exercise sessions when organizing students in subgroups.\relax }}{40}{figure.4.1}}
\newlabel{fig:deviation_ex}{{4.1}{40}{The deviation of two exercise sessions when organizing students in subgroups.\relax }{figure.4.1}{}}
\@writefile{toc}{\contentsline {subsection}{\numberline {4.3.3}How to divide student groups}{40}{subsection.4.3.3}}
\@writefile{toc}{\contentsline {subsubsection}{Students taking the same program often have the same timetable}{40}{section*.16}}
\@writefile{lof}{\contentsline {figure}{\numberline {4.2}{\ignorespaces When each student group is assigned to separate exercise sessions, each group has 10 edges for their courses, then there the total edges is 20.\relax }}{41}{figure.4.2}}
\newlabel{groupSplit_diagram}{{4.2}{41}{When each student group is assigned to separate exercise sessions, each group has 10 edges for their courses, then there the total edges is 20.\relax }{figure.4.2}{}}
\@writefile{toc}{\contentsline {subsubsection}{Proposal of division of student groups}{41}{section*.17}}
\citation{CP_course}
\newlabel{alg:subgroups}{{\caption@xref {alg:subgroups}{ on input line 75}}{42}{Proposal of division of student groups}{section*.17}{}}
\@writefile{loa}{\contentsline {algorithm}{\numberline {1}{\ignorespaces Calculate the number of subgroups when splitting large groups\relax }}{42}{algorithm.1}}
\newlabel{alg:cal_nbSubgroup}{{1}{42}{Calculate the number of subgroups when splitting large groups\relax }{algorithm.1}{}}
\@writefile{lot}{\contentsline {table}{\numberline {4.3}{\ignorespaces Example of dividing a group into subgroups\relax }}{42}{table.4.3}}
\newlabel{my-label}{{4.3}{42}{Example of dividing a group into subgroups\relax }{table.4.3}{}}
\@writefile{toc}{\contentsline {section}{\numberline {4.4}Optimization techniques}{42}{section.4.4}}
\@writefile{toc}{\contentsline {subsection}{\numberline {4.4.1}Large Neighborhood Search}{42}{subsection.4.4.1}}
\citation{volns}
\citation{CP_course}
\citation{cp_sumConstraint}
\citation{volns}
\citation{volns}
\@writefile{lof}{\contentsline {figure}{\numberline {4.3}{\ignorespaces The search space of Constraint Programming. \relax }}{43}{figure.4.3}}
\newlabel{fig:cp_exploration}{{4.3}{43}{The search space of Constraint Programming. \relax }{figure.4.3}{}}
\citation{volns}
\@writefile{lof}{\contentsline {figure}{\numberline {4.4}{\ignorespaces The search space of Large Neighborhood Search. \relax }}{44}{figure.4.4}}
\newlabel{fig:lns_exploration}{{4.4}{44}{The search space of Large Neighborhood Search. \relax }{figure.4.4}{}}
\@writefile{toc}{\contentsline {subsection}{\numberline {4.4.2}Variable Objective Large Neighborhood Search (VO-LNS)}{44}{subsection.4.4.2}}
\@writefile{lol}{\contentsline {lstlisting}{listings/4\textunderscore volns.scala}{45}{lstlisting.4.-11}}
\@writefile{toc}{\contentsline {section}{\numberline {4.5}Optimization Objectives}{45}{section.4.5}}
\@writefile{toc}{\contentsline {subsection}{\numberline {4.5.1}Objective 1: Minimizing the total conflict in student schedule}{45}{subsection.4.5.1}}
\newlabel{optimize_obj1}{{4.5.1}{45}{Objective 1: Minimizing the total conflict in student schedule}{subsection.4.5.1}{}}
\@writefile{toc}{\contentsline {subsubsection}{Branch and Bound}{46}{section*.18}}
\newlabel{sec:obj1_BB}{{4.5.1}{46}{Branch and Bound}{section*.18}{}}
\@writefile{lot}{\contentsline {table}{\numberline {4.4}{\ignorespaces Comparison between two relaxation strategies.  Experiment with data of semester 5 in 2013.\relax }}{46}{table.4.4}}
\newlabel{tab:relax_strategy}{{4.4}{46}{Comparison between two relaxation strategies.\\ Experiment with data of semester 5 in 2013.\relax }{table.4.4}{}}
\@writefile{lof}{\contentsline {figure}{\numberline {4.5}{\ignorespaces Comparison between splitting group into subgroups and students.   Experiment with data of semester 5 in 2013. \relax }}{47}{figure.4.5}}
\newlabel{fig:BB_Q5}{{4.5}{47}{Comparison between splitting group into subgroups and students. \\ Experiment with data of semester 5 in 2013. \relax }{figure.4.5}{}}
\@writefile{lof}{\contentsline {figure}{\numberline {4.6}{\ignorespaces Comparison between splitting groups into individual students and subgroups.   Experiment with data of semester 4 and 6 in 2013. \relax }}{47}{figure.4.6}}
\newlabel{fig:BB_Q4Q6}{{4.6}{47}{Comparison between splitting groups into individual students and subgroups. \\ Experiment with data of semester 4 and 6 in 2013. \relax }{figure.4.6}{}}
\@writefile{toc}{\contentsline {subsubsection}{Iterative Optimization}{48}{section*.19}}
\@writefile{lol}{\contentsline {lstlisting}{listings/4\textunderscore Optimization\textunderscore Iterative.scala}{48}{lstlisting.4.-12}}
\@writefile{lot}{\contentsline {table}{\numberline {4.5}{\ignorespaces Result of optimization semester 5 in 2013   by using iterative method\relax }}{48}{table.4.5}}
\newlabel{table:iterative_S5}{{4.5}{48}{Result of optimization semester 5 in 2013 \\ by using iterative method\relax }{table.4.5}{}}
\@writefile{lot}{\contentsline {table}{\numberline {4.6}{\ignorespaces Result of optimization semester 4 and 6 in 2013   by using iterative method\relax }}{49}{table.4.6}}
\newlabel{table:iterative_S4S6}{{4.6}{49}{Result of optimization semester 4 and 6 in 2013 \\ by using iterative method\relax }{table.4.6}{}}
\@writefile{toc}{\contentsline {subsubsection}{Combining both approaches}{49}{section*.20}}
\@writefile{lot}{\contentsline {table}{\numberline {4.7}{\ignorespaces The average result of first solution found by iterative optimization.   Testing with data of 2013. \relax }}{49}{table.4.7}}
\newlabel{tab:1step_iterative}{{4.7}{49}{The average result of first solution found by iterative optimization. \\ Testing with data of 2013. \relax }{table.4.7}{}}
\@writefile{lot}{\contentsline {table}{\numberline {4.8}{\ignorespaces Comparison branch and bound approach with   two different exploration strategies\relax }}{50}{table.4.8}}
\@writefile{toc}{\contentsline {subsection}{\numberline {4.5.2}Objective 2: Minimizing the conflicts in non-preferred slots of professors}{50}{subsection.4.5.2}}
\@writefile{toc}{\contentsline {subsubsection}{Generate non-preferred slots of each professor}{50}{section*.21}}
\@writefile{toc}{\contentsline {subsubsection}{Calculate the conflicts in non-preferred slots}{50}{section*.22}}
\@writefile{lol}{\contentsline {lstlisting}{listings/4\textunderscore calculate\textunderscore nonpreferedSlots\textunderscore 1session.scala}{50}{lstlisting.4.-13}}
\@writefile{lol}{\contentsline {lstlisting}{listings/4\textunderscore nonpreferedSlots\textunderscore weightedsum.scala}{51}{lstlisting.4.-14}}
\@writefile{toc}{\contentsline {subsubsection}{Search}{51}{section*.23}}
\newlabel{tab:conflict_non-prefer}{{4.8}{51}{}{table.4.9}{}}
\@writefile{lot}{\contentsline {table}{\numberline {4.9}{\ignorespaces An example of the array of number of conflicts in non-preferred slots of a lecture session.   Based on this array, a value is chosen for its variable.\relax }}{51}{table.4.9}}
\@writefile{lot}{\contentsline {table}{\numberline {4.10}{\ignorespaces Comparing the results of two heuristics with the optimal value.  Testing with data of semester 5 in 2013\relax }}{52}{table.4.10}}
\newlabel{tab:non-preferred-heuristic}{{4.10}{52}{Comparing the results of two heuristics with the optimal value.\\ Testing with data of semester 5 in 2013\relax }{table.4.10}{}}
\@writefile{toc}{\contentsline {subsubsection}{Relaxation}{52}{section*.24}}
\@writefile{toc}{\contentsline {subsection}{\numberline {4.5.3}Objective 3: Maximizing the quality of schedule}{52}{subsection.4.5.3}}
\@writefile{toc}{\contentsline {subsubsection}{Definition of the third objective}{52}{section*.25}}
\@writefile{lol}{\contentsline {lstlisting}{listings/4\textunderscore Objective3.scala}{52}{lstlisting.4.-15}}
\@writefile{toc}{\contentsline {subsubsection}{Relaxation}{52}{section*.26}}
\@writefile{toc}{\contentsline {subsubsection}{Result}{52}{section*.27}}
\@writefile{lof}{\contentsline {figure}{\numberline {4.7}{\ignorespaces The quality of schedule in semester 5 from 2011 to 2013. \relax }}{53}{figure.4.7}}
\newlabel{fig:qualitySchedule_Q5}{{4.7}{53}{The quality of schedule in semester 5 from 2011 to 2013. \relax }{figure.4.7}{}}
\@writefile{toc}{\contentsline {subsection}{\numberline {4.5.4}Objective 4: Minimizing the total number of students attending the end slot of day}{53}{subsection.4.5.4}}
\@writefile{toc}{\contentsline {subsubsection}{Definition of the fourth objective}{53}{section*.28}}
\@writefile{lol}{\contentsline {lstlisting}{listings/4\textunderscore Objective4.scala}{53}{lstlisting.4.-16}}
\@writefile{toc}{\contentsline {subsubsection}{Relaxation}{53}{section*.29}}
\@writefile{toc}{\contentsline {subsubsection}{The reason to introduce the fourth objective}{54}{section*.30}}
\newlabel{sec:reason_obj4}{{4.5.4}{54}{The reason to introduce the fourth objective}{section*.30}{}}
\@writefile{lot}{\contentsline {table}{\numberline {4.11}{\ignorespaces The improvement of the quality of schedule after optimizing objective 4\relax }}{54}{table.4.11}}
\newlabel{tab:obj4}{{4.11}{54}{The improvement of the quality of schedule after optimizing objective 4\relax }{table.4.11}{}}
\@writefile{toc}{\contentsline {subsection}{\numberline {4.5.5}Objective 5: Minimizing the total deviation of number of students in exercise sessions}{54}{subsection.4.5.5}}
\@writefile{lol}{\contentsline {lstlisting}{listings/4\textunderscore obj5\textunderscore deviation.scala}{54}{lstlisting.4.-17}}
\@writefile{toc}{\contentsline {subsubsection}{Relaxation}{55}{section*.31}}
\@writefile{toc}{\contentsline {subsubsection}{Result}{55}{section*.32}}
\@writefile{lot}{\contentsline {table}{\numberline {4.12}{\ignorespaces The total deviation of number of students in exercise sessions\relax }}{55}{table.4.12}}
\newlabel{tab:obj5_deviation}{{4.12}{55}{The total deviation of number of students in exercise sessions\relax }{table.4.12}{}}
\@writefile{toc}{\contentsline {subsection}{\numberline {4.5.6}Relaxation}{55}{subsection.4.5.6}}
\@writefile{toc}{\contentsline {subsubsection}{Worst Solution Relaxation}{55}{section*.33}}
\@writefile{lof}{\contentsline {figure}{\numberline {4.8}{\ignorespaces Comparing the improvement of the quality of schedule when fixing the arrangement of subgroups and relaxing them. Testing with data of semester 5 in 2013.\relax }}{56}{figure.4.8}}
\newlabel{fixingSubgroups}{{4.8}{56}{Comparing the improvement of the quality of schedule when fixing the arrangement of subgroups and relaxing them. Testing with data of semester 5 in 2013.\relax }{figure.4.8}{}}
\@writefile{toc}{\contentsline {subsubsection}{Adaptive Neighborhood Relaxation}{56}{section*.34}}
\citation{CP_course}
\@writefile{lot}{\contentsline {table}{\numberline {4.13}{\ignorespaces Value of objectives when using dom heuristic.  Testing with the data of semester 5 in 2013\relax }}{57}{table.4.13}}
\newlabel{tab:domHeuristic}{{4.13}{57}{Value of objectives when using dom heuristic. \\Testing with the data of semester 5 in 2013\relax }{table.4.13}{}}
\@writefile{toc}{\contentsline {subsection}{\numberline {4.5.7}Search}{57}{subsection.4.5.7}}
\@writefile{toc}{\contentsline {subsubsection}{Binary First Fail - Dom heuristic}{57}{section*.35}}
\@writefile{toc}{\contentsline {subsubsection}{Binary First Fail - Dom/deg heuristic}{58}{section*.36}}
\@writefile{toc}{\contentsline {chapter}{\numberline {5}The experiments}{59}{chapter.5}}
\@writefile{lof}{\addvspace {10\p@ }}
\@writefile{lot}{\addvspace {10\p@ }}
\@writefile{toc}{\contentsline {section}{\numberline {5.1}Data size}{59}{section.5.1}}
\@writefile{lot}{\contentsline {table}{\numberline {5.1}{\ignorespaces The attributes of data instances\relax }}{59}{table.5.1}}
\newlabel{tab:data}{{5.1}{59}{The attributes of data instances\relax }{table.5.1}{}}
\@writefile{toc}{\contentsline {section}{\numberline {5.2}Results}{59}{section.5.2}}
\@writefile{lot}{\contentsline {table}{\numberline {5.2}{\ignorespaces The difference in the number of students in two models.\relax }}{60}{table.5.2}}
\newlabel{tab:dif_2models}{{5.2}{60}{The difference in the number of students in two models.\relax }{table.5.2}{}}
\@writefile{lot}{\contentsline {table}{\numberline {5.3}{\ignorespaces Result of experiments with the data of semester 5 in 2011 and 2012\relax }}{60}{table.5.3}}
\newlabel{tab:S5_2011_2011}{{5.3}{60}{Result of experiments with the data of semester 5 in 2011 and 2012\relax }{table.5.3}{}}
\@writefile{lot}{\contentsline {table}{\numberline {5.4}{\ignorespaces Result of experiments with the data of 2013\relax }}{60}{table.5.4}}
\newlabel{tab:data_2013}{{5.4}{60}{Result of experiments with the data of 2013\relax }{table.5.4}{}}
\@writefile{toc}{\contentsline {chapter}{Conclusion}{61}{chapter*.37}}
\bibcite{timetable}{1}
\bibcite{classifies_tts}{2}
\bibcite{gapTheoryPractice}{3}
\bibcite{bachelor}{4}
\bibcite{stateOfArt_tts}{5}
\bibcite{section_group}{6}
\bibcite{graphColoring}{7}
\bibcite{CP_defintion}{8}
\bibcite{cp_gcc}{9}
\bibcite{cp_table}{10}
\bibcite{CP_course}{11}
\bibcite{globalConstraint}{12}
\bibcite{binPacking}{13}
\bibcite{Cambazard2012}{14}
\bibcite{mip}{15}
\bibcite{cp_patat}{16}
\bibcite{cp_sumConstraint}{17}
\bibcite{volns}{18}
\bibcite{patat}{19}
\bibcite{OscaR}{20}
\bibcite{softConstraint}{21}
